…
#Checking results
gbr_eez_SP
```

    ## Simple feature collection with 26 features and 10 fields
    ## Geometry type: MULTIPOLYGON
    ## Dimension:     XY
    ## Bounding box:  xmin: -180 ymin: -31.24447 xmax: 180 ymax: 23.89565
    ## Geodetic CRS:  WGS 84
    ## # A tibble: 26 × 11
    ##    id    name          MRGID GEONAME SOVEREIGN1 SOVEREIGN2 TERRITORY1 TERRITORY2
    ##    <fct> <chr>         <dbl> <chr>   <chr>      <fct>      <fct>      <fct>     
    ##  1 <NA>  GBR            9999 Great … Australia  <NA>       <NA>       <NA>      
    ##  2 KI    Kiribati - P…  8450 Kiriba… Kiribati   <NA>       Phoenix G… <NA>      
    ##  3 KI    Kiribati - L…  8441 Kiriba… Kiribati   <NA>       Line Group <NA>      
    ##  4 KI    Kiribati - G…  8488 Kiriba… Kiribati   <NA>       Gilbert I… <NA>      
    ##  5 PF    French Polyn…  8440 French… France     <NA>       French Po… <NA>      
    ##  6 MP    Northern Mar… 48980 Northe… United St… <NA>       Northern … <NA>      
    ##  7 WF    Wallis and F…  8454 Wallis… France     <NA>       Wallis an… <NA>      
    ##  8 VU    Vanuatu        8313 Vanuat… Vanuatu    <NA>       Vanuatu    <NA>      
    ##  9 PG    Papua New Gu… 21798 Protec… Papua New… Australia  Papua New… Australia 
    ## 10 PG    Papua New Gu…  8324 Papua … Papua New… <NA>       Papua New… <NA>      
    ## # ℹ 16 more rows
    ## # ℹ 3 more variables: AREA_KM2 <dbl>, geometry <MULTIPOLYGON [°]>, ID <dbl>
…
